Introduction à R
…
`gather` et `spread`

<img src="http://r4ds.had.co.nz/images/tidy-9.png" width="90%" style="display: block; margin: auto;" />

---
## Pivoter

```r
keolis %>% 
  gather(variable, valeur, retweet_count, favorite_count) %>% 
  select(id, created_at, variable, valeur)
```

```
## # A tibble: 893,578 × 4
##                    id          created_at      variable valeur
##                 <chr>              <dttm>         <chr>  <int>
##  1 841335833521192960 2017-03-13 17:11:08 retweet_count      0
##  2 841335838776659968 2017-03-13 17:11:09 retweet_count      0
##  3 841335840009814017 2017-03-13 17:11:10 retweet_count      0
##  4 841335843235209221 2017-03-13 17:11:10 retweet_count      0
##  5 841335849103044608 2017-03-13 17:11:12 retweet_count      0
##  6 841335877620105216 2017-03-13 17:11:19 retweet_count      0
##  7 841335880275152897 2017-03-13 17:11:19 retweet_count      0
##  8 841335946322837504 2017-03-13 17:11:35 retweet_count      0
##  9 841335994200805376 2017-03-13 17:11:46 retweet_count      0
## 10 841336051515940866 2017-03-13 17:12:00 retweet_count      0
## # ... with 893,568 more rows
```
