Introduction à R
…
```
## Auto-refreshing stale OAuth token.
```

```r
keolis %>% 
  inner_join(twittos, by = c("from_user_id" = "user_id"), suffix = c("_tweet", "_user"))
```

```
## # A tibble: 3,229 x 71
##                    id       time    created_at_tweet from_user_name
##                 <chr>      <int>              <dttm>          <chr>
##  1 841335833521192960 1489425068 2017-03-13 17:11:08  ryanwalsh1999
##  2 841335838776659968 1489425069 2017-03-13 17:11:09     SeaBubbles
##  3 841335840009814017 1489425070 2017-03-13 17:11:10 Huudxi__Xaohno
##  4 841335843235209221 1489425070 2017-03-13 17:11:10     Yogesh_Rya
##  5 841335849103044608 1489425072 2017-03-13 17:11:12     Millercare
##  6 841335877620105216 1489425079 2017-03-13 17:11:19     SoSolianne
##  7 841335880275152897 1489425079 2017-03-13 17:11:19   MidlightOwls
##  8 841335946322837504 1489425095 2017-03-13 17:11:35      clairewad
##  9 841335994200805376 1489425106 2017-03-13 17:11:46      MerciDean
## 10 841336051515940866 1489425120 2017-03-13 17:12:00  AndyHowarthPT
## # ... with 3,219 more rows, and 67 more variables: text <chr>,
## #   filter_level <chr>, possibly_sensitive <int>,
## #   withheld_copyright <chr>, withheld_scope <chr>, truncated <int>,
## #   retweet_count <int>, favorite_count <int>, lang_tweet <chr>,
## #   to_user_name <chr>, in_reply_to_status_id <chr>,
## #   quoted_status_id <chr>, source <chr>, location_tweet <chr>, lat <dbl>,
## #   lng <dbl>, from_user_id <chr>, from_user_realname <chr>,
## #   from_user_verified <int>, from_user_description <chr>,
## #   from_user_url <chr>, from_user_profile_image_url <chr>,
…
- `bind_rows`
- `bind_cols`

---
## Tips & tricks dplyr

```r
keolis %>% 
  group_by(from_user_name) %>% 
  summarise(n = n()) %>% 
  arrange(desc(n))
```

```
## # A tibble: 293,314 x 2
##    from_user_name     n
##             <chr> <int>
##  1     Millercare  2254
##  2         apphil  1000
##  3 mobilityreport   996
##  4      CIOmobile   638
##  5 MTAMmTransport   597
##  6   tait_colette   588
##  7      ESTechInc   578
##  8  LeadsHibiscus   514
##  9 MobileTechAssn   476
## 10     GoMobileMI   473
## # ... with 293,304 more rows
```

---
## Tips & tricks dplyr

```r
keolis %>% 
  count(from_user_name, sort = TRUE)
```

```
## # A tibble: 293,314 x 2
##    from_user_name     n
##             <chr> <int>
##  1     Millercare  2254
##  2         apphil  1000
##  3 mobilityreport   996
##  4      CIOmobile   638
##  5 MTAMmTransport   597
##  6   tait_colette   588
##  7      ESTechInc   578
##  8  LeadsHibiscus   514
##  9 MobileTechAssn   476
## 10     GoMobileMI   473
## # ... with 293,304 more rows
```
…
Sélectionner le dernier tweet de chaque twittos

```r
keolis %>% 
  group_by(from_user_id) %>% 
  arrange(desc(created_at)) %>% 
  slice(1) %>% 
  ungroup %>% 
  select(created_at, from_user_name, text)
```

```
## # A tibble: 293,132 x 3
##             created_at from_user_name
##                 <dttm>          <chr>
##  1 2017-03-29 14:23:20    juanvicalle
##  2 2017-04-19 00:43:39      danni_mnz
##  3 2017-04-28 17:54:59 FoxTalksSports
##  4 2017-04-25 09:40:46 myboringhandle
##  5 2017-05-03 06:08:52        tc31220
##  6 2017-05-03 19:01:06    Rubbish_No3
##  7 2017-04-18 19:59:04         erix0x
##  8 2017-04-27 21:47:25  ValentinoNora
##  9 2017-04-18 10:30:22        men24UK
## 10 2017-04-19 02:42:50   dom_didonato
## # ... with 293,122 more rows, and 1 more variables: text <chr>
```
…
Numéroter les tweets de chaque twittos

```r
keolis %>% 
  group_by(from_user_id) %>% 
  arrange(created_at) %>% 
  mutate(numero = 1:n()) %>% 
  ungroup %>% 
  arrange(from_user_id) %>% 
  select(id, from_user_id, numero)
```

```
## # A tibble: 446,789 x 3
##                    id from_user_id numero
##                 <chr>        <chr>  <int>
##  1 847091796710699010    100001781      1
##  2 847091812275773441    100001781      2
##  3 854495674917830656   1000032049      1
##  4 855991585015816192   1000033112      1
##  5 855991633652793345   1000033112      2
##  6 855991709544714240   1000033112      3
##  7 856640939338735616   1000033112      4
##  8 856640957625847808   1000033112      5
##  9 858016710145843202   1000033112      6
## 10 856805170688253952    100004865      1
## # ... with 446,779 more rows
```

---
## Tips & tricks tidyr

`separate` (+ `lubridate`)

```r
keolis %>% 
  separate(created_at, c("date", "heure"), " ", remove = FALSE) %>% 
  mutate(date = ymd(date), heure = hms(heure)) %>% 
  select(created_at, date, heure)
```

```
## # A tibble: 446,789 x 3
##             created_at       date        heure
##                 <dttm>     <date> <S4: Period>
##  1 2017-03-13 17:11:08 2017-03-13   17H 11M 8S
##  2 2017-03-13 17:11:09 2017-03-13   17H 11M 9S
##  3 2017-03-13 17:11:10 2017-03-13  17H 11M 10S
##  4 2017-03-13 17:11:10 2017-03-13  17H 11M 10S
##  5 2017-03-13 17:11:12 2017-03-13  17H 11M 12S
##  6 2017-03-13 17:11:19 2017-03-13  17H 11M 19S
##  7 2017-03-13 17:11:19 2017-03-13  17H 11M 19S
##  8 2017-03-13 17:11:35 2017-03-13  17H 11M 35S
##  9 2017-03-13 17:11:46 2017-03-13  17H 11M 46S
## 10 2017-03-13 17:12:00 2017-03-13   17H 12M 0S
## # ... with 446,779 more rows
```
…
